module AD/webrtc

go 1.21.5

require (
	github.com/gorilla/handlers v1.5.2
	github.com/gorilla/mux v1.8.1
	github.com/gorilla/websocket v1.5.1
)

require (
	github.com/felixge/httpsnoop v1.0.3 // indirect
	golang.org/x/net v0.17.0 // indirect
)
